simulation/qsim/Lab10_Traffic_Light.msim.vcd
$comment
	File created using the following command:
		vcd file Lab10_Traffic_Light.msim.vcd -direction
$end
$date
	Tue Nov 22 14:39:34 2022
$end
$version
	ModelSim Version 10.5b
$end
$timescale
	1ps
$end

$scope module Lab10_Traffic_Light_vlg_vec_tst $end
$var reg 1 ! clock $end
$var reg 1 " reset $end
$var wire 1 # dot_col [7] $end
$var wire 1 $ dot_col [6] $end
$var wire 1 % dot_col [5] $end
$var wire 1 & dot_col [4] $end
$var wire 1 ' dot_col [3] $end
$var wire 1 ( dot_col [2] $end
$var wire 1 ) dot_col [1] $end
$var wire 1 * dot_col [0] $end
$var wire 1 + dot_row [7] $end
$var wire 1 , dot_row [6] $end
$var wire 1 - dot_row [5] $end
$var wire 1 . dot_row [4] $end
$var wire 1 / dot_row [3] $end
$var wire 1 0 dot_row [2] $end
$var wire 1 1 dot_row [1] $end
$var wire 1 2 dot_row [0] $end
$var wire 1 3 out [6] $end
$var wire 1 4 out [5] $end
$var wire 1 5 out [4] $end
$var wire 1 6 out [3] $end
$var wire 1 7 out [2] $end
$var wire 1 8 out [1] $end
$var wire 1 9 out [0] $end

$scope module i1 $end
$var wire 1 : gnd $end
$var wire 1 ; vcc $end
$var wire 1 < unknown $end
$var tri1 1 = devclrn $end
$var tri1 1 > devpor $end
$var tri1 1 ? devoe $end
$var wire 1 @ ~QUARTUS_CREATED_GND~I_combout $end
$var wire 1 A clock~input_o $end
$var wire 1 B clock~inputCLKENA0_outclk $end
$var wire 1 C u_FreqDiv2|Add0~73_sumout $end
$var wire 1 D reset~input_o $end
$var wire 1 E u_FreqDiv2|count[17]~0_combout $end
$var wire 1 F u_FreqDiv2|Add0~74 $end
$var wire 1 G u_FreqDiv2|Add0~77_sumout $end
$var wire 1 H u_FreqDiv2|Add0~78 $end
$var wire 1 I u_FreqDiv2|Add0~33_sumout $end
$var wire 1 J u_FreqDiv2|Add0~34 $end
$var wire 1 K u_FreqDiv2|Add0~37_sumout $end
$var wire 1 L u_FreqDiv2|Add0~38 $end
$var wire 1 M u_FreqDiv2|Add0~41_sumout $end
$var wire 1 N u_FreqDiv2|Add0~42 $end
$var wire 1 O u_FreqDiv2|Add0~45_sumout $end
$var wire 1 P u_FreqDiv2|Add0~46 $end
$var wire 1 Q u_FreqDiv2|Add0~49_sumout $end
$var wire 1 R u_FreqDiv2|Add0~50 $end
$var wire 1 S u_FreqDiv2|Add0~53_sumout $end
$var wire 1 T u_FreqDiv2|Add0~54 $end
$var wire 1 U u_FreqDiv2|Add0~9_sumout $end
$var wire 1 V u_FreqDiv2|Add0~10 $end
$var wire 1 W u_FreqDiv2|Add0~13_sumout $end
$var wire 1 X u_FreqDiv2|Add0~14 $end
$var wire 1 Y u_FreqDiv2|Add0~17_sumout $end
$var wire 1 Z u_FreqDiv2|Add0~18 $end
$var wire 1 [ u_FreqDiv2|Add0~21_sumout $end
$var wire 1 \ u_FreqDiv2|Add0~22 $end
$var wire 1 ] u_FreqDiv2|Add0~25_sumout $end
$var wire 1 ^ u_FreqDiv2|Add0~26 $end
$var wire 1 _ u_FreqDiv2|Add0~29_sumout $end
$var wire 1 ` u_FreqDiv2|Add0~30 $end
$var wire 1 a u_FreqDiv2|Add0~1_sumout $end
$var wire 1 b u_FreqDiv2|Add0~2 $end
$var wire 1 c u_FreqDiv2|Add0~5_sumout $end
$var wire 1 d u_FreqDiv2|Equal0~0_combout $end
$var wire 1 e u_FreqDiv2|Add0~6 $end
$var wire 1 f u_FreqDiv2|Add0~57_sumout $end
$var wire 1 g u_FreqDiv2|Add0~58 $end
$var wire 1 h u_FreqDiv2|Add0~81_sumout $end
$var wire 1 i u_FreqDiv2|Add0~82 $end
$var wire 1 j u_FreqDiv2|Add0~85_sumout $end
$var wire 1 k u_FreqDiv2|count[18]~feeder_combout $end
$var wire 1 l u_FreqDiv2|Add0~86 $end
$var wire 1 m u_FreqDiv2|Add0~89_sumout $end
$var wire 1 n u_FreqDiv2|Add0~90 $end
$var wire 1 o u_FreqDiv2|Add0~93_sumout $end
$var wire 1 p u_FreqDiv2|Add0~94 $end
$var wire 1 q u_FreqDiv2|Add0~97_sumout $end
$var wire 1 r u_FreqDiv2|Add0~98 $end
$var wire 1 s u_FreqDiv2|Add0~113_sumout $end
$var wire 1 t u_FreqDiv2|Add0~114 $end
$var wire 1 u u_FreqDiv2|Add0~69_sumout $end
$var wire 1 v u_FreqDiv2|Add0~70 $end
$var wire 1 w u_FreqDiv2|Add0~65_sumout $end
$var wire 1 x u_FreqDiv2|Add0~66 $end
$var wire 1 y u_FreqDiv2|Add0~61_sumout $end
$var wire 1 z u_FreqDiv2|Add0~62 $end
$var wire 1 { u_FreqDiv2|Add0~125_sumout $end
$var wire 1 | u_FreqDiv2|Add0~126 $end
$var wire 1 } u_FreqDiv2|Add0~121_sumout $end
$var wire 1 ~ u_FreqDiv2|Add0~122 $end
$var wire 1 !! u_FreqDiv2|Add0~117_sumout $end
$var wire 1 "! u_FreqDiv2|Add0~118 $end
$var wire 1 #! u_FreqDiv2|Add0~109_sumout $end
$var wire 1 $! u_FreqDiv2|Add0~110 $end
$var wire 1 %! u_FreqDiv2|Add0~105_sumout $end
$var wire 1 &! u_FreqDiv2|Equal0~5_combout $end
$var wire 1 '! u_FreqDiv2|Add0~106 $end
$var wire 1 (! u_FreqDiv2|Add0~101_sumout $end
$var wire 1 )! u_FreqDiv2|Equal0~4_combout $end
$var wire 1 *! u_FreqDiv2|Equal0~3_combout $end
$var wire 1 +! u_FreqDiv2|Equal0~1_combout $end
$var wire 1 ,! u_FreqDiv2|Equal0~2_combout $end
$var wire 1 -! u_FreqDiv2|Equal0~6_combout $end
$var wire 1 .! u_FreqDiv2|div_clk~0_combout $end
$var wire 1 /! u_FreqDiv2|div_clk~feeder_combout $end
$var wire 1 0! u_FreqDiv2|div_clk~q $end
$var wire 1 1! u_dotMatirx|row_count[0]~3_combout $end
$var wire 1 2! u_dotMatirx|row_count[0]~feeder_combout $end
$var wire 1 3! u_dotMatirx|row_count[0]~DUPLICATE_q $end
$var wire 1 4! u_dotMatirx|row_count[1]~DUPLICATE_q $end
$var wire 1 5! u_dotMatirx|row_count[1]~1_combout $end
$var wire 1 6! u_dotMatirx|row_count[2]~0_combout $end
$var wire 1 7! u_dotMatirx|Decoder0~0_combout $end
$var wire 1 8! u_dotMatirx|Decoder0~1_combout $end
$var wire 1 9! u_dotMatirx|Decoder0~2_combout $end
$var wire 1 :! u_dotMatirx|Decoder0~3_combout $end
$var wire 1 ;! u_dotMatirx|Decoder0~4_combout $end
$var wire 1 <! u_dotMatirx|Decoder0~5_combout $end
$var wire 1 =! u_dotMatirx|Decoder0~6_combout $end
$var wire 1 >! u_dotMatirx|Decoder0~7_combout $end
$var wire 1 ?! u_FreqDiv1|Add0~125_sumout $end
$var wire 1 @! u_FreqDiv1|count[27]~0_combout $end
$var wire 1 A! u_FreqDiv1|Add0~126 $end
$var wire 1 B! u_FreqDiv1|Add0~121_sumout $end
$var wire 1 C! u_FreqDiv1|Add0~122 $end
$var wire 1 D! u_FreqDiv1|Add0~117_sumout $end
$var wire 1 E! u_FreqDiv1|Add0~118 $end
$var wire 1 F! u_FreqDiv1|Add0~113_sumout $end
$var wire 1 G! u_FreqDiv1|Add0~114 $end
$var wire 1 H! u_FreqDiv1|Add0~109_sumout $end
$var wire 1 I! u_FreqDiv1|Add0~110 $end
$var wire 1 J! u_FreqDiv1|Add0~105_sumout $end
$var wire 1 K! u_FreqDiv1|Add0~106 $end
$var wire 1 L! u_FreqDiv1|Add0~57_sumout $end
$var wire 1 M! u_FreqDiv1|Add0~58 $end
$var wire 1 N! u_FreqDiv1|Add0~61_sumout $end
$var wire 1 O! u_FreqDiv1|Add0~62 $end
$var wire 1 P! u_FreqDiv1|Add0~65_sumout $end
$var wire 1 Q! u_FreqDiv1|Add0~66 $end
$var wire 1 R! u_FreqDiv1|Add0~69_sumout $end
$var wire 1 S! u_FreqDiv1|Add0~70 $end
$var wire 1 T! u_FreqDiv1|Add0~73_sumout $end
$var wire 1 U! u_FreqDiv1|Add0~74 $end
$var wire 1 V! u_FreqDiv1|Add0~77_sumout $end
$var wire 1 W! u_FreqDiv1|Add0~78 $end
$var wire 1 X! u_FreqDiv1|Add0~33_sumout $end
$var wire 1 Y! u_FreqDiv1|Add0~34 $end
$var wire 1 Z! u_FreqDiv1|Add0~37_sumout $end
$var wire 1 [! u_FreqDiv1|Add0~38 $end
$var wire 1 \! u_FreqDiv1|Add0~41_sumout $end
$var wire 1 ]! u_FreqDiv1|Add0~42 $end
$var wire 1 ^! u_FreqDiv1|Add0~45_sumout $end
$var wire 1 _! u_FreqDiv1|Add0~46 $end
$var wire 1 `! u_FreqDiv1|Add0~49_sumout $end
$var wire 1 a! u_FreqDiv1|Add0~50 $end
$var wire 1 b! u_FreqDiv1|Add0~53_sumout $end
$var wire 1 c! u_FreqDiv1|Add0~54 $end
$var wire 1 d! u_FreqDiv1|Add0~9_sumout $end
$var wire 1 e! u_FreqDiv1|Add0~10 $end
$var wire 1 f! u_FreqDiv1|Add0~13_sumout $end
$var wire 1 g! u_FreqDiv1|Add0~14 $end
$var wire 1 h! u_FreqDiv1|Add0~17_sumout $end
$var wire 1 i! u_FreqDiv1|Add0~18 $end
$var wire 1 j! u_FreqDiv1|Add0~21_sumout $end
$var wire 1 k! u_FreqDiv1|Add0~22 $end
$var wire 1 l! u_FreqDiv1|Add0~25_sumout $end
$var wire 1 m! u_FreqDiv1|Add0~26 $end
$var wire 1 n! u_FreqDiv1|Add0~101_sumout $end
$var wire 1 o! u_FreqDiv1|Add0~102 $end
$var wire 1 p! u_FreqDiv1|Add0~29_sumout $end
$var wire 1 q! u_FreqDiv1|Equal0~1_combout $end
$var wire 1 r! u_FreqDiv1|Add0~30 $end
$var wire 1 s! u_FreqDiv1|Add0~1_sumout $end
$var wire 1 t! u_FreqDiv1|Add0~2 $end
$var wire 1 u! u_FreqDiv1|Add0~5_sumout $end
$var wire 1 v! u_FreqDiv1|Add0~6 $end
$var wire 1 w! u_FreqDiv1|Add0~81_sumout $end
$var wire 1 x! u_FreqDiv1|Add0~82 $end
$var wire 1 y! u_FreqDiv1|Add0~85_sumout $end
$var wire 1 z! u_FreqDiv1|Add0~86 $end
$var wire 1 {! u_FreqDiv1|Add0~89_sumout $end
$var wire 1 |! u_FreqDiv1|Add0~90 $end
$var wire 1 }! u_FreqDiv1|Add0~93_sumout $end
$var wire 1 ~! u_FreqDiv1|Add0~94 $end
$var wire 1 !" u_FreqDiv1|Add0~97_sumout $end
$var wire 1 "" u_FreqDiv1|Equal0~4_combout $end
$var wire 1 #" u_FreqDiv1|Equal0~0_combout $end
$var wire 1 $" u_FreqDiv1|Equal0~2_combout $end
$var wire 1 %" u_FreqDiv1|Equal0~5_combout $end
$var wire 1 &" u_FreqDiv1|Equal0~3_combout $end
$var wire 1 '" u_FreqDiv1|Equal0~6_combout $end
$var wire 1 (" u_FreqDiv1|div_clk~0_combout $end
$var wire 1 )" u_FreqDiv1|div_clk~feeder_combout $end
$var wire 1 *" u_FreqDiv1|div_clk~q $end
$var wire 1 +" u_dotMatirx|Equal1~0_combout $end
$var wire 1 ," u_counter|y_count[0]~2_combout $end
$var wire 1 -" u_counter|y_count[0]~DUPLICATE_q $end
$var wire 1 ." u_counter|Add1~0_combout $end
$var wire 1 /" u_counter|y_count~0_combout $end
$var wire 1 0" u_counter|y_count~1_combout $end
$var wire 1 1" u_counter|Equal1~0_combout $end
$var wire 1 2" u_counter|Add2~0_combout $end
$var wire 1 3" u_counter|Add2~1_combout $end
$var wire 1 4" u_counter|r_count~0_combout $end
$var wire 1 5" u_counter|r_count~1_combout $end
$var wire 1 6" u_counter|gyr[0]~0_combout $end
$var wire 1 7" u_counter|g_count[0]~1_combout $end
$var wire 1 8" u_dotMatirx|Selector2~1_combout $end
$var wire 1 9" u_counter|g_count[1]~0_combout $end
$var wire 1 :" u_counter|g_count[1]~DUPLICATE_q $end
$var wire 1 ;" u_counter|Add0~0_combout $end
$var wire 1 <" u_counter|Add0~1_combout $end
$var wire 1 =" u_counter|g_count[3]~DUPLICATE_q $end
$var wire 1 >" u_counter|gyr[0]~1_combout $end
$var wire 1 ?" u_counter|gyr[0]~3_combout $end
$var wire 1 @" u_counter|gyr[0]~DUPLICATE_q $end
$var wire 1 A" u_counter|gyr[1]~2_combout $end
$var wire 1 B" u_dotMatirx|Selector7~0_combout $end
$var wire 1 C" u_dotMatirx|Selector6~0_combout $end
$var wire 1 D" u_dotMatirx|Selector5~0_combout $end
$var wire 1 E" u_dotMatirx|Selector4~0_combout $end
$var wire 1 F" u_dotMatirx|Selector3~0_combout $end
$var wire 1 G" u_dotMatirx|Selector2~0_combout $end
$var wire 1 H" u_dotMatirx|Selector1~0_combout $end
$var wire 1 I" u_dotMatirx|Selector0~0_combout $end
$var wire 1 J" u_counter|Selector3~0_combout $end
$var wire 1 K" u_counter|Selector2~0_combout $end
$var wire 1 L" u_counter|r_count[1]~_wirecell_combout $end
$var wire 1 M" u_counter|Selector0~0_combout $end
$var wire 1 N" u_counter|r_count[3]~_wirecell_combout $end
$var wire 1 O" u_counter|Selector1~0_combout $end
$var wire 1 P" u_sevenDisplay|WideOr6~0_combout $end
$var wire 1 Q" u_sevenDisplay|WideOr5~0_combout $end
$var wire 1 R" u_sevenDisplay|WideOr4~0_combout $end
$var wire 1 S" u_sevenDisplay|WideOr3~0_combout $end
$var wire 1 T" u_sevenDisplay|WideOr2~0_combout $end
$var wire 1 U" u_sevenDisplay|WideOr1~0_combout $end
$var wire 1 V" u_sevenDisplay|WideOr0~0_combout $end
$var wire 1 W" u_counter|count [3] $end
$var wire 1 X" u_counter|count [2] $end
$var wire 1 Y" u_counter|count [1] $end
$var wire 1 Z" u_counter|count [0] $end
$var wire 1 [" u_FreqDiv2|count [31] $end
$var wire 1 \" u_FreqDiv2|count [30] $end
$var wire 1 ]" u_FreqDiv2|count [29] $end
$var wire 1 ^" u_FreqDiv2|count [28] $end
$var wire 1 _" u_FreqDiv2|count [27] $end
$var wire 1 `" u_FreqDiv2|count [26] $end
$var wire 1 a" u_FreqDiv2|count [25] $end
$var wire 1 b" u_FreqDiv2|count [24] $end
$var wire 1 c" u_FreqDiv2|count [23] $end
$var wire 1 d" u_FreqDiv2|count [22] $end
$var wire 1 e" u_FreqDiv2|count [21] $end
$var wire 1 f" u_FreqDiv2|count [20] $end
$var wire 1 g" u_FreqDiv2|count [19] $end
$var wire 1 h" u_FreqDiv2|count [18] $end
$var wire 1 i" u_FreqDiv2|count [17] $end
$var wire 1 j" u_FreqDiv2|count [16] $end
$var wire 1 k" u_FreqDiv2|count [15] $end
$var wire 1 l" u_FreqDiv2|count [14] $end
$var wire 1 m" u_FreqDiv2|count [13] $end
$var wire 1 n" u_FreqDiv2|count [12] $end
$var wire 1 o" u_FreqDiv2|count [11] $end
$var wire 1 p" u_FreqDiv2|count [10] $end
$var wire 1 q" u_FreqDiv2|count [9] $end
$var wire 1 r" u_FreqDiv2|count [8] $end
$var wire 1 s" u_FreqDiv2|count [7] $end
$var wire 1 t" u_FreqDiv2|count [6] $end
$var wire 1 u" u_FreqDiv2|count [5] $end
$var wire 1 v" u_FreqDiv2|count [4] $end
$var wire 1 w" u_FreqDiv2|count [3] $end
$var wire 1 x" u_FreqDiv2|count [2] $end
$var wire 1 y" u_FreqDiv2|count [1] $end
$var wire 1 z" u_FreqDiv2|count [0] $end
$var wire 1 {" u_dotMatirx|row_count [2] $end
$var wire 1 |" u_dotMatirx|row_count [1] $end
$var wire 1 }" u_dotMatirx|row_count [0] $end
$var wire 1 ~" u_counter|r_count [3] $end
$var wire 1 !# u_counter|r_count [2] $end
$var wire 1 "# u_counter|r_count [1] $end
$var wire 1 ## u_counter|r_count [0] $end
$var wire 1 $# u_FreqDiv1|count [31] $end
$var wire 1 %# u_FreqDiv1|count [30] $end
$var wire 1 &# u_FreqDiv1|count [29] $end
$var wire 1 '# u_FreqDiv1|count [28] $end
$var wire 1 (# u_FreqDiv1|count [27] $end
$var wire 1 )# u_FreqDiv1|count [26] $end
$var wire 1 *# u_FreqDiv1|count [25] $end
$var wire 1 +# u_FreqDiv1|count [24] $end
$var wire 1 ,# u_FreqDiv1|count [23] $end
$var wire 1 -# u_FreqDiv1|count [22] $end
$var wire 1 .# u_FreqDiv1|count [21] $end
$var wire 1 /# u_FreqDiv1|count [20] $end
$var wire 1 0# u_FreqDiv1|count [19] $end
$var wire 1 1# u_FreqDiv1|count [18] $end
$var wire 1 2# u_FreqDiv1|count [17] $end
$var wire 1 3# u_FreqDiv1|count [16] $end
$var wire 1 4# u_FreqDiv1|count [15] $end
$var wire 1 5# u_FreqDiv1|count [14] $end
$var wire 1 6# u_FreqDiv1|count [13] $end
$var wire 1 7# u_FreqDiv1|count [12] $end
$var wire 1 8# u_FreqDiv1|count [11] $end
$var wire 1 9# u_FreqDiv1|count [10] $end
$var wire 1 :# u_FreqDiv1|count [9] $end
$var wire 1 ;# u_FreqDiv1|count [8] $end
$var wire 1 <# u_FreqDiv1|count [7] $end
$var wire 1 =# u_FreqDiv1|count [6] $end
$var wire 1 ># u_FreqDiv1|count [5] $end
$var wire 1 ?# u_FreqDiv1|count [4] $end
$var wire 1 @# u_FreqDiv1|count [3] $end
$var wire 1 A# u_FreqDiv1|count [2] $end
$var wire 1 B# u_FreqDiv1|count [1] $end
$var wire 1 C# u_FreqDiv1|count [0] $end
$var wire 1 D# u_counter|gyr [1] $end
$var wire 1 E# u_counter|gyr [0] $end
$var wire 1 F# u_dotMatirx|dot_row [7] $end
$var wire 1 G# u_dotMatirx|dot_row [6] $end
$var wire 1 H# u_dotMatirx|dot_row [5] $end
$var wire 1 I# u_dotMatirx|dot_row [4] $end
$var wire 1 J# u_dotMatirx|dot_row [3] $end
$var wire 1 K# u_dotMatirx|dot_row [2] $end
$var wire 1 L# u_dotMatirx|dot_row [1] $end
$var wire 1 M# u_dotMatirx|dot_row [0] $end
$var wire 1 N# u_counter|g_count [3] $end
$var wire 1 O# u_counter|g_count [2] $end
$var wire 1 P# u_counter|g_count [1] $end
$var wire 1 Q# u_counter|g_count [0] $end
$var wire 1 R# u_dotMatirx|dot_col [7] $end
$var wire 1 S# u_dotMatirx|dot_col [6] $end
$var wire 1 T# u_dotMatirx|dot_col [5] $end
$var wire 1 U# u_dotMatirx|dot_col [4] $end
$var wire 1 V# u_dotMatirx|dot_col [3] $end
$var wire 1 W# u_dotMatirx|dot_col [2] $end
$var wire 1 X# u_dotMatirx|dot_col [1] $end
$var wire 1 Y# u_dotMatirx|dot_col [0] $end
$var wire 1 Z# u_counter|y_count [3] $end
$var wire 1 [# u_counter|y_count [2] $end
$var wire 1 \# u_counter|y_count [1] $end
$var wire 1 ]# u_counter|y_count [0] $end
$upscope $end
$upscope $end
$enddefinitions $end
#0
$dumpvars
0!
0"
0*
0)
0(
0'
0&
0%
0$
0#
02
01
00
0/
0.
0-
0,
0+
09
08
07
06
05
04
13
0:
1;
x<
1=
1>
1?
0@
0A
0B
1C
0D
1E
0F
0G
0H
0I
0J
0K
0L
0M
0N
0O
0P
0Q
0R
0S
0T
0U
0V
0W
0X
0Y
0Z
0[
0\
0]
0^
0_
0`
0a
0b
0c
1d
0e
0f
0g
0h
0i
0j
0k
0l
0m
0n
0o
0p
0q
0r
0s
0t
0u
0v
0w
0x
0y
0z
0{
0|
0}
0~
0!!
0"!
0#!
0$!
0%!
1&!
0'!
0(!
1)!
1*!
0+!
0,!
0-!
0.!
0/!
00!
11!
12!
03!
04!
05!
06!
17!
18!
19!
1:!
1;!
1<!
1=!
0>!
1?!
1@!
0A!
0B!
0C!
0D!
0E!
0F!
0G!
0H!
0I!
0J!
0K!
0L!
0M!
0N!
0O!
0P!
0Q!
0R!
0S!
0T!
0U!
0V!
0W!
0X!
0Y!
0Z!
0[!
0\!
0]!
0^!
0_!
0`!
0a!
0b!
0c!
0d!
0e!
0f!
0g!
0h!
0i!
0j!
0k!
0l!
0m!
0n!
0o!
0p!
0q!
0r!
0s!
0t!
0u!
0v!
0w!
0x!
0y!
0z!
0{!
0|!
0}!
0~!
0!"
1""
1#"
0$"
1%"
0&"
0'"
0("
0)"
0*"
0+"
1,"
0-"
0."
0/"
00"
01"
12"
03"
14"
05"
06"
17"
18"
09"
0:"
0;"
0<"
0="
0>"
0?"
0@"
0A"
0B"
0C"
1D"
1E"
0F"
0G"
0H"
0I"
1J"
1K"
1L"
1M"
1N"
1O"
0P"
0Q"
0R"
0S"
0T"
0U"
0V"
0Z"
0Y"
0X"
0W"
0z"
0y"
0x"
0w"
0v"
0u"
0t"
0s"
0r"
0q"
0p"
0o"
0n"
0m"
0l"
0k"
0j"
0i"
0h"
0g"
0f"
0e"
0d"
0c"
0b"
0a"
0`"
0_"
0^"
0]"
0\"
0["
0}"
0|"
0{"
0##
0"#
0!#
0~"
0C#
0B#
0A#
0@#
0?#
0>#
0=#
0<#
0;#
0:#
09#
08#
07#
06#
05#
04#
03#
02#
01#
00#
0/#
0.#
0-#
0,#
0+#
0*#
0)#
0(#
0'#
0&#
0%#
0$#
0E#
0D#
0M#
0L#
0K#
0J#
0I#
0H#
0G#
0F#
0Q#
0P#
0O#
0N#
0Y#
0X#
0W#
0V#
0U#
0T#
0S#
0R#
0]#
0\#
0[#
0Z#
$end
#10000
1!
1A
1B
#20000
0!
0A
0B
#30000
1!
1A
1B
#40000
1"
0!
1D
0A
0B
0@!
0E
#50000
1!
1A
1B
1C#
1z"
0*!
1F
0%"
1A!
0C
0?!
1G
1B!
#60000
0!
0A
0B
#70000
1!
1A
1B
1B#
0C#
1y"
0z"
0F
1H
0A!
1C!
1C
0G
1?!
0B!
0H
0C!
1G
1I
1B!
1D!
0I
0D!
#80000
0!
0A
0B
#90000
1!
1A
1B
1C#
1z"
1F
1A!
0C
0?!
1H
1C!
0G
0B!
1I
1D!
#100000
0!
0A
0B
#110000
1!
1A
1B
1A#
0B#
0C#
1x"
0y"
0z"
1*!
0F
0H
1J
0A!
0C!
1E!
1C
1G
0I
1?!
1B!
0D!
0J
0E!
0G
1I
1K
0B!
1D!
1F!
0K
0F!
#120000
0!
0A
0B
#130000
1!
1A
1B
1C#
1z"
0*!
1F
1A!
0C
0?!
1G
1B!
#140000
0!
0A
0B
#150000
1!
1A
1B
1B#
0C#
1y"
0z"
0F
1H
0A!
1C!
1C
0G
1?!
0B!
0H
1J
0C!
1E!
1G
0I
1B!
0D!
0J
0E!
1I
1K
1D!
1F!
0K
0F!
#160000
0!
0A
0B
#170000
1!
1A
1B
1C#
1z"
1F
1A!
0C
0?!
1H
1C!
0G
0B!
1J
1E!
0I
0D!
1K
1F!
#180000
0!
0A
0B
#190000
1!
1A
1B
1@#
0A#
0B#
0C#
1w"
0x"
0y"
0z"
1*!
0F
0H
0J
1L
0A!
0C!
0E!
1G!
1C
1G
1I
0K
1?!
1B!
1D!
0F!
0L
0G!
0G
0I
1K
1M
0B!
0D!
1F!
1H!
0M
0H!
#200000
0!
0A
0B
#210000
1!
1A
1B
1C#
1z"
0*!
1F
1A!
0C
0?!
1G
1B!
#220000
0!
0A
0B
#230000
1!
1A
1B
1B#
0C#
1y"
0z"
0F
1H
0A!
1C!
1C
0G
1?!
0B!
0H
0C!
1G
1I
1B!
1D!
0I
0D!
#240000
0!
0A
0B
#250000
1!
1A
1B
1C#
1z"
1F
1A!
0C
0?!
1H
1C!
0G
0B!
1I
1D!
#260000
0!
0A
0B
#270000
1!
1A
1B
1A#
0B#
0C#
1x"
0y"
0z"
1*!
0F
0H
1J
0A!
0C!
1E!
1C
1G
0I
1?!
1B!
0D!
0J
1L
0E!
1G!
0G
1I
0K
0B!
1D!
0F!
0L
0G!
1K
1M
1F!
1H!
0M
0H!
#280000
0!
0A
0B
#290000
1!
1A
1B
1C#
1z"
0*!
1F
1A!
0C
0?!
1G
1B!
#300000
0!
0A
0B
#310000
1!
1A
1B
1B#
0C#
1y"
0z"
0F
1H
0A!
1C!
1C
0G
1?!
0B!
0H
1J
0C!
1E!
1G
0I
1B!
0D!
0J
1L
0E!
1G!
1I
0K
1D!
0F!
0L
0G!
1K
1M
1F!
1H!
0M
0H!
#320000
0!
0A
0B
#330000
1!
1A
1B
1C#
1z"
1F
1A!
0C
0?!
1H
1C!
0G
0B!
1J
1E!
0I
0D!
1L
1G!
0K
0F!
1M
1H!
#340000
0!
0A
0B
#350000
1!
1A
1B
1?#
0@#
0A#
0B#
0C#
1v"
0w"
0x"
0y"
0z"
1*!
0F
0H
0J
0L
1N
0A!
0C!
0E!
0G!
1I!
1C
1G
1I
1K
0M
1?!
1B!
1D!
1F!
0H!
0N
0I!
0G
0I
0K
1M
1O
0B!
0D!
0F!
1H!
1J!
0O
0J!
#360000
0!
0A
0B
#370000
1!
1A
1B
1C#
1z"
0*!
1F
1A!
0C
0?!
1G
1B!
#380000
0!
0A
0B
#390000
1!
1A
1B
1B#
0C#
1y"
0z"
0F
1H
0A!
1C!
1C
0G
1?!
0B!
0H
0C!
1G
1I
1B!
1D!
0I
0D!
#400000
0!
0A
0B
#410000
1!
1A
1B
1C#
1z"
1F
1A!
0C
0?!
1H
1C!
0G
0B!
1I
1D!
#420000
0!
0A
0B
#430000
1!
1A
1B
1A#
0B#
0C#
1x"
0y"
0z"
1*!
0F
0H
1J
0A!
0C!
1E!
1C
1G
0I
1?!
1B!
0D!
0J
0E!
0G
1I
1K
0B!
1D!
1F!
0K
0F!
#440000
0!
0A
0B
#450000
1!
1A
1B
1C#
1z"
0*!
1F
1A!
0C
0?!
1G
1B!
#460000
0!
0A
0B
#470000
1!
1A
1B
1B#
0C#
1y"
0z"
0F
1H
0A!
1C!
1C
0G
1?!
0B!
0H
1J
0C!
1E!
1G
0I
1B!
0D!
0J
0E!
1I
1K
1D!
1F!
0K
0F!
#480000
0!
0A
0B
#490000
1!
1A
1B
1C#
1z"
1F
1A!
0C
0?!
1H
1C!
0G
0B!
1J
1E!
0I
0D!
1K
1F!
#500000
0!
0A
0B
#510000
1!
1A
1B
1@#
0A#
0B#
0C#
1w"
0x"
0y"
0z"
1*!
0F
0H
0J
1L
0A!
0C!
0E!
1G!
1C
1G
1I
0K
1?!
1B!
1D!
0F!
0L
1N
0G!
1I!
0G
0I
1K
0M
0B!
0D!
1F!
0H!
0N
0I!
1M
1O
1H!
1J!
0O
0J!
#520000
0!
0A
0B
#530000
1!
1A
1B
1C#
1z"
0*!
1F
1A!
0C
0?!
1G
1B!
#540000
0!
0A
0B
#550000
1!
1A
1B
1B#
0C#
1y"
0z"
0F
1H
0A!
1C!
1C
0G
1?!
0B!
0H
0C!
1G
1I
1B!
1D!
0I
0D!
#560000
0!
0A
0B
#570000
1!
1A
1B
1C#
1z"
1F
1A!
0C
0?!
1H
1C!
0G
0B!
1I
1D!
#580000
0!
0A
0B
#590000
1!
1A
1B
1A#
0B#
0C#
1x"
0y"
0z"
1*!
0F
0H
1J
0A!
0C!
1E!
1C
1G
0I
1?!
1B!
0D!
0J
1L
0E!
1G!
0G
1I
0K
0B!
1D!
0F!
0L
1N
0G!
1I!
1K
0M
1F!
0H!
0N
0I!
1M
1O
1H!
1J!
0O
0J!
#600000
0!
0A
0B
#610000
1!
1A
1B
1C#
1z"
0*!
1F
1A!
0C
0?!
1G
1B!
#620000
0!
0A
0B
#630000
1!
1A
1B
1B#
0C#
1y"
0z"
0F
1H
0A!
1C!
1C
0G
1?!
0B!
0H
1J
0C!
1E!
1G
0I
1B!
0D!
0J
1L
0E!
1G!
1I
0K
1D!
0F!
0L
1N
0G!
1I!
1K
0M
1F!
0H!
0N
0I!
1M
1O
1H!
1J!
0O
0J!
#640000
0!
0A
0B
#650000
1!
1A
1B
1C#
1z"
1F
1A!
0C
0?!
1H
1C!
0G
0B!
1J
1E!
0I
0D!
1L
1G!
0K
0F!
1N
1I!
0M
0H!
1O
1J!
#660000
0!
0A
0B
#670000
1!
1A
1B
1>#
0?#
0@#
0A#
0B#
0C#
1u"
0v"
0w"
0x"
0y"
0z"
1*!
0F
0H
0J
0L
0N
1P
0A!
0C!
0E!
0G!
0I!
1K!
1C
1G
1I
1K
1M
0O
1?!
1B!
1D!
1F!
1H!
0J!
0P
0K!
0G
0I
0K
0M
1O
1Q
0B!
0D!
0F!
0H!
1J!
1L!
0Q
0L!
#680000
0!
0A
0B
#690000
1!
1A
1B
1C#
1z"
0*!
1F
1A!
0C
0?!
1G
1B!
#700000
0!
0A
0B
#710000
1!
1A
1B
1B#
0C#
1y"
0z"
0F
1H
0A!
1C!
1C
0G
1?!
0B!
0H
0C!
1G
1I
1B!
1D!
0I
0D!
#720000
0!
0A
0B
#730000
1!
1A
1B
1C#
1z"
1F
1A!
0C
0?!
1H
1C!
0G
0B!
1I
1D!
#740000
0!
0A
0B
#750000
1!
1A
1B
1A#
0B#
0C#
1x"
0y"
0z"
1*!
0F
0H
1J
0A!
0C!
1E!
1C
1G
0I
1?!
1B!
0D!
0J
0E!
0G
1I
1K
0B!
1D!
1F!
0K
0F!
#760000
0!
0A
0B
#770000
1!
1A
1B
1C#
1z"
0*!
1F
1A!
0C
0?!
1G
1B!
#780000
0!
0A
0B
#790000
1!
1A
1B
1B#
0C#
1y"
0z"
0F
1H
0A!
1C!
1C
0G
1?!
0B!
0H
1J
0C!
1E!
1G
0I
1B!
0D!
0J
0E!
1I
1K
1D!
1F!
0K
0F!
#800000
0!
0A
0B
#810000
1!
1A
1B
1C#
1z"
1F
1A!
0C
0?!
1H
1C!
0G
0B!
1J
1E!
0I
0D!
1K
1F!
#820000
0!
0A
0B
