simulation/qsim/Lab10_Traffic_Light.msim.vcd
$comment
	File created using the following command:
		vcd file Lab10_Traffic_Light.msim.vcd -direction
$end
$date
	Mon Nov 21 00:00:16 2022
$end
$version
	ModelSim Version 10.5b
$end
$timescale
	1ps
$end

$scope module Lab10_Traffic_Light_vlg_vec_tst $end
$var reg 1 ! clock $end
$var reg 1 " reset $end
$var wire 1 # dot_col [7] $end
$var wire 1 $ dot_col [6] $end
$var wire 1 % dot_col [5] $end
$var wire 1 & dot_col [4] $end
$var wire 1 ' dot_col [3] $end
$var wire 1 ( dot_col [2] $end
$var wire 1 ) dot_col [1] $end
$var wire 1 * dot_col [0] $end
$var wire 1 + dot_row [7] $end
$var wire 1 , dot_row [6] $end
$var wire 1 - dot_row [5] $end
$var wire 1 . dot_row [4] $end
$var wire 1 / dot_row [3] $end
$var wire 1 0 dot_row [2] $end
$var wire 1 1 dot_row [1] $end
$var wire 1 2 dot_row [0] $end
$var wire 1 3 out [6] $end
$var wire 1 4 out [5] $end
$var wire 1 5 out [4] $end
$var wire 1 6 out [3] $end
$var wire 1 7 out [2] $end
$var wire 1 8 out [1] $end
$var wire 1 9 out [0] $end

$scope module i1 $end
$var wire 1 : gnd $end
$var wire 1 ; vcc $end
$var wire 1 < unknown $end
$var tri1 1 = devclrn $end
$var tri1 1 > devpor $end
$var tri1 1 ? devoe $end
$var wire 1 @ ~QUARTUS_CREATED_GND~I_combout $end
$var wire 1 A clock~input_o $end
$var wire 1 B clock~inputCLKENA0_outclk $end
$var wire 1 C u_dotMatirx|row_count[0]~3_combout $end
$var wire 1 D reset~input_o $end
$var wire 1 E u_dotMatirx|row_count[0]~DUPLICATE_q $end
$var wire 1 F u_dotMatirx|row_count[1]~1_combout $end
$var wire 1 G u_dotMatirx|row_count[2]~0_combout $end
$var wire 1 H u_dotMatirx|row_count[1]~DUPLICATE_q $end
$var wire 1 I u_dotMatirx|Decoder0~0_combout $end
$var wire 1 J u_dotMatirx|Decoder0~1_combout $end
$var wire 1 K u_dotMatirx|Decoder0~2_combout $end
$var wire 1 L u_dotMatirx|Decoder0~3_combout $end
$var wire 1 M u_dotMatirx|Decoder0~4_combout $end
$var wire 1 N u_dotMatirx|Decoder0~5_combout $end
$var wire 1 O u_dotMatirx|Decoder0~6_combout $end
$var wire 1 P u_dotMatirx|row_count[2]~DUPLICATE_q $end
$var wire 1 Q u_dotMatirx|Decoder0~7_combout $end
$var wire 1 R u_counter|r_count[0]~DUPLICATE_q $end
$var wire 1 S u_counter|r_count[3]~DUPLICATE_q $end
$var wire 1 T u_counter|r_count~1_combout $end
$var wire 1 U u_counter|r_count[2]~DUPLICATE_q $end
$var wire 1 V u_counter|r_count~0_combout $end
$var wire 1 W u_counter|Add2~0_combout $end
$var wire 1 X u_counter|Add2~1_combout $end
$var wire 1 Y u_counter|Equal2~0_combout $end
$var wire 1 Z u_counter|g_count[0]~1_combout $end
$var wire 1 [ u_dotMatirx|Selector5~1_combout $end
$var wire 1 \ u_counter|g_count[1]~0_combout $end
$var wire 1 ] u_counter|g_count[1]~DUPLICATE_q $end
$var wire 1 ^ u_counter|g_count[0]~DUPLICATE_q $end
$var wire 1 _ u_counter|Add0~0_combout $end
$var wire 1 ` u_counter|g_count[2]~DUPLICATE_q $end
$var wire 1 a u_counter|Add0~1_combout $end
$var wire 1 b u_counter|g_count[3]~DUPLICATE_q $end
$var wire 1 c u_counter|gyr[2]~0_combout $end
$var wire 1 d u_counter|gyr[0]~2_combout $end
$var wire 1 e u_counter|gyr[0]~DUPLICATE_q $end
$var wire 1 f u_dotMatirx|Equal1~0_combout $end
$var wire 1 g u_counter|y_count[0]~2_combout $end
$var wire 1 h u_counter|y_count[0]~DUPLICATE_q $end
$var wire 1 i u_counter|y_count[1]~DUPLICATE_q $end
$var wire 1 j u_counter|Add1~0_combout $end
$var wire 1 k u_counter|y_count[2]~DUPLICATE_q $end
$var wire 1 l u_counter|y_count~0_combout $end
$var wire 1 m u_counter|y_count~1_combout $end
$var wire 1 n u_counter|y_count[3]~DUPLICATE_q $end
$var wire 1 o u_counter|Equal1~0_combout $end
$var wire 1 p u_counter|gyr[1]~1_combout $end
$var wire 1 q u_dotMatirx|Selector7~0_combout $end
$var wire 1 r u_dotMatirx|Selector6~0_combout $end
$var wire 1 s u_dotMatirx|Selector5~0_combout $end
$var wire 1 t u_dotMatirx|Selector4~0_combout $end
$var wire 1 u u_dotMatirx|Selector3~0_combout $end
$var wire 1 v u_dotMatirx|Selector2~0_combout $end
$var wire 1 w u_dotMatirx|Selector1~0_combout $end
$var wire 1 x u_dotMatirx|Selector0~0_combout $end
$var wire 1 y u_counter|Selector3~0_combout $end
$var wire 1 z u_counter|Selector2~0_combout $end
$var wire 1 { u_counter|r_count[1]~DUPLICATE_q $end
$var wire 1 | u_counter|r_count[1]~_wirecell_combout $end
$var wire 1 } u_counter|Selector0~0_combout $end
$var wire 1 ~ u_counter|r_count[3]~_wirecell_combout $end
$var wire 1 !! u_counter|Selector1~0_combout $end
$var wire 1 "! u_sevenDisplay|WideOr6~0_combout $end
$var wire 1 #! u_sevenDisplay|WideOr5~0_combout $end
$var wire 1 $! u_sevenDisplay|WideOr4~0_combout $end
$var wire 1 %! u_sevenDisplay|WideOr3~0_combout $end
$var wire 1 &! u_sevenDisplay|WideOr2~0_combout $end
$var wire 1 '! u_sevenDisplay|WideOr1~0_combout $end
$var wire 1 (! u_sevenDisplay|WideOr0~0_combout $end
$var wire 1 )! u_counter|count [3] $end
$var wire 1 *! u_counter|count [2] $end
$var wire 1 +! u_counter|count [1] $end
$var wire 1 ,! u_counter|count [0] $end
$var wire 1 -! u_counter|gyr [2] $end
$var wire 1 .! u_counter|gyr [1] $end
$var wire 1 /! u_counter|gyr [0] $end
$var wire 1 0! u_dotMatirx|dot_row [7] $end
$var wire 1 1! u_dotMatirx|dot_row [6] $end
$var wire 1 2! u_dotMatirx|dot_row [5] $end
$var wire 1 3! u_dotMatirx|dot_row [4] $end
$var wire 1 4! u_dotMatirx|dot_row [3] $end
$var wire 1 5! u_dotMatirx|dot_row [2] $end
$var wire 1 6! u_dotMatirx|dot_row [1] $end
$var wire 1 7! u_dotMatirx|dot_row [0] $end
$var wire 1 8! u_counter|g_count [3] $end
$var wire 1 9! u_counter|g_count [2] $end
$var wire 1 :! u_counter|g_count [1] $end
$var wire 1 ;! u_counter|g_count [0] $end
$var wire 1 <! u_dotMatirx|dot_col [7] $end
$var wire 1 =! u_dotMatirx|dot_col [6] $end
$var wire 1 >! u_dotMatirx|dot_col [5] $end
$var wire 1 ?! u_dotMatirx|dot_col [4] $end
$var wire 1 @! u_dotMatirx|dot_col [3] $end
$var wire 1 A! u_dotMatirx|dot_col [2] $end
$var wire 1 B! u_dotMatirx|dot_col [1] $end
$var wire 1 C! u_dotMatirx|dot_col [0] $end
$var wire 1 D! u_counter|r_count [3] $end
$var wire 1 E! u_counter|r_count [2] $end
$var wire 1 F! u_counter|r_count [1] $end
$var wire 1 G! u_counter|r_count [0] $end
$var wire 1 H! u_dotMatirx|row_count [2] $end
$var wire 1 I! u_dotMatirx|row_count [1] $end
$var wire 1 J! u_dotMatirx|row_count [0] $end
$var wire 1 K! u_counter|y_count [3] $end
$var wire 1 L! u_counter|y_count [2] $end
$var wire 1 M! u_counter|y_count [1] $end
$var wire 1 N! u_counter|y_count [0] $end
$upscope $end
$upscope $end
$enddefinitions $end
#0
$dumpvars
0!
0"
0*
0)
0(
0'
0&
0%
0$
0#
02
01
00
0/
0.
0-
0,
0+
09
08
07
06
05
04
13
0:
1;
x<
1=
1>
1?
0@
0A
0B
1C
0D
0E
0F
0G
0H
1I
1J
1K
1L
1M
1N
1O
0P
0Q
0R
0S
0T
0U
1V
1W
0X
0Y
1Z
1[
0\
0]
0^
0_
0`
0a
0b
0c
0d
0e
0f
1g
0h
0i
0j
0k
0l
0m
0n
0o
0p
0q
0r
1s
1t
0u
0v
0w
0x
1y
1z
0{
1|
1}
1~
1!!
0"!
0#!
0$!
0%!
0&!
0'!
0(!
0,!
0+!
0*!
0)!
0/!
0.!
z-!
07!
06!
05!
04!
03!
02!
01!
00!
0;!
0:!
09!
08!
0C!
0B!
0A!
0@!
0?!
0>!
0=!
0<!
0G!
0F!
0E!
0D!
0J!
0I!
0H!
0N!
0M!
0L!
0K!
$end
#10000
1!
1A
1B
#20000
0!
0A
0B
#30000
1!
1A
1B
#40000
1"
0!
1D
0A
0B
#50000
1!
1A
1B
1*!
1)!
1+!
1,!
1^
1;!
1E
1J!
1@!
1A!
11!
12!
13!
14!
15!
16!
17!
12
11
10
1/
1.
1-
1,
1(
1'
1(!
1Q
0O
0C
1F
0y
1\
0Z
1%!
1$!
1#!
18
17
16
03
#60000
0!
0A
0B
#70000
1!
1A
1B
0,!
0^
1]
0;!
1:!
1H
1I!
0E
0J!
10!
01!
0,
1+
1u
0s
1q
1O
0N
1C
0z
1y
1Z
0%!
06
#80000
0!
0A
0B
#90000
1!
1A
1B
0+!
1,!
1^
1;!
1E
1J!
1?!
0A!
1C!
11!
02!
0-
1,
1*
0(
1&
1w
1v
1s
1r
0q
1N
0M
0C
1G
0F
0y
0\
0Z
1_
1'!
0$!
0#!
1"!
19
08
07
14
#100000
0!
0A
0B
#110000
1!
1A
1B
0,!
1`
0^
19!
0]
0;!
0:!
1P
0H
1H!
0I!
0E
0J!
1=!
1>!
1A!
1B!
0C!
12!
03!
0.
1-
0*
1)
1(
1%
1$
0(!
1x
0w
0v
0s
0r
1M
0L
1C
1z
1y
1Z
0!!
0'!
1$!
1#!
0"!
09
18
17
04
13
#120000
0!
0A
0B
#130000
1!
1A
1B
0*!
1+!
1,!
1^
1;!
1E
1J!
1<!
0=!
0>!
0A!
0B!
13!
04!
0/
1.
0)
0(
0%
0$
1#
1(!
0x
1L
0C
0K
1F
0y
1\
0Z
0$!
1"!
19
07
03
#140000
0!
0A
0B
#150000
1!
1A
1B
0,!
0^
1]
0;!
1:!
1H
1I!
0E
0J!
0<!
14!
05!
00
1/
0#
1v
0u
0J
1C
1K
0z
1y
1Z
1%!
0#!
0"!
09
08
16
#160000
0!
0A
0B
#170000
1!
1A
1B
0+!
1,!
1^
1;!
1E
1J!
1>!
0?!
15!
06!
01
10
0&
1%
1w
0v
1J
0I
0C
0G
0F
0y
1a
0\
0Z
0_
1&!
0%!
06
15
#180000
0!
0A
0B
#190000
1!
1A
1B
0,!
1b
18!
0`
0^
09!
0]
0;!
0:!
0P
0H
0H!
0I!
0E
0J!
1=!
0>!
16!
07!
02
11
0%
1$
0w
1s
0Q
1I
1C
1z
1y
1Z
1!!
0}
0&!
05
#200000
0!
0A
0B
#210000
1!
1A
1B
1*!
0)!
1+!
1,!
1^
1;!
1E
1J!
0=!
1A!
00!
17!
12
0+
1(
0$
0(!
1Q
0O
0C
1F
0y
1\
0Z
1'!
1&!
1%!
16
15
14
13
#220000
0!
0A
0B
#230000
1!
1A
1B
0,!
0^
1]
0;!
1:!
1H
1I!
0E
0J!
10!
01!
0,
1+
1(!
1u
0s
1q
1O
0N
1C
0z
1y
1Z
0'!
0&!
0%!
1#!
18
06
05
04
03
#240000
0!
0A
0B
#250000
1!
1A
1B
0+!
1,!
1^
1;!
1E
1J!
1?!
0A!
1C!
11!
02!
0-
1,
1*
0(
1&
1w
1v
1s
1r
0q
1N
0M
0C
1G
0F
0y
0\
0Z
1_
1&!
15
#260000
0!
0A
0B
#270000
1!
1A
1B
0,!
1`
0^
19!
0]
0;!
0:!
1P
0H
1H!
0I!
0E
0J!
1=!
1>!
1A!
1B!
0C!
12!
03!
0.
1-
0*
1)
1(
1%
1$
1x
0w
0v
0s
0r
1M
0L
1C
1z
1y
1Z
0!!
1%!
0#!
1"!
19
08
16
#280000
0!
0A
0B
#290000
1!
1A
1B
0*!
1+!
1,!
1^
1;!
1E
1J!
1<!
0=!
0>!
0A!
0B!
13!
04!
0/
1.
0)
0(
0%
0$
1#
0x
1L
0C
0K
1F
0y
1\
0Z
1'!
0%!
0"!
09
06
14
#300000
0!
0A
0B
#310000
1!
1A
1B
0,!
0^
1]
0;!
1:!
1H
1I!
0E
0J!
0<!
14!
05!
00
1/
0#
1c
1v
0u
0J
1C
1K
0z
1y
1Z
0&!
1$!
17
05
#320000
0!
0A
0B
#330000
1!
1A
1B
0+!
1,!
1^
1;!
1E
1J!
1>!
0?!
15!
06!
01
10
0&
1%
0(!
1w
0v
1J
0I
0C
0G
0F
0y
1d
0a
0\
0Z
0_
1&!
1%!
0$!
1"!
19
07
16
15
13
#340000
0!
0A
0B
#350000
1!
1A
1B
0,!
1e
0b
08!
0`
0^
09!
0]
0;!
0:!
1/!
0P
0H
0H!
0I!
0E
0J!
1=!
0>!
16!
07!
02
11
0%
1$
0c
1f
0[
0w
0t
0Q
1I
1C
1y
1Z
1!!
0'!
0&!
0%!
0"!
09
06
05
04
#360000
0!
0A
0B
#370000
1!
1A
1B
1*!
1,!
1h
1N!
1E
1J!
0=!
0@!
00!
17!
12
0+
0'
0$
1(!
1v
1s
1Q
0O
0C
1F
0y
0g
1l
1j
1&!
1#!
18
15
03
#380000
0!
0A
0B
#390000
1!
1A
1B
0,!
1M!
1k
1i
1L!
0h
0N!
1H
1I!
0E
0J!
1>!
1A!
10!
01!
0,
1+
1(
1%
1u
1t
1O
0N
1C
1y
1g
1z
0!!
1%!
0#!
1"!
19
08
16
#400000
0!
0A
0B
#410000
1!
1A
1B
0*!
1+!
1,!
1h
1N!
1E
1J!
1?!
1@!
11!
02!
0-
1,
1'
1&
1x
1q
1N
0M
0C
1G
0F
0y
0g
0l
1'!
0%!
0"!
09
06
14
#420000
0!
0A
0B
#430000
1!
1A
1B
0,!
0M!
0i
0h
0N!
1P
0H
1H!
0I!
0E
0J!
1<!
1C!
12!
03!
0.
1-
1*
1#
1w
1r
1M
0L
1C
1y
1g
0z
0&!
1$!
17
05
#440000
0!
0A
0B
#450000
1!
1A
1B
0+!
1,!
1h
1N!
1E
1J!
1=!
1B!
13!
04!
0/
1.
1)
1$
1o
0(!
0x
0w
0r
0q
1L
0C
0K
1F
0y
0g
0j
1&!
1%!
0$!
1"!
19
07
16
15
13
1p
0d
#460000
0!
0A
0B
#470000
0"
1!
0D
1A
1B
0J!
0E
0H!
0P
0/!
0e
0N!
0h
0L!
0k
07!
06!
05!
03!
02!
01!
00!
0C!
0B!
0A!
0@!
0?!
0>!
0=!
0<!
0#
0$
0%
0&
0'
0(
0)
0*
0+
0,
0-
0.
00
01
02
0o
0f
1[
1!!
1y
1g
1}
1z
0v
0u
0p
0Q
1K
0G
0F
1C
#480000
0!
0A
0B
#490000
1!
1A
1B
#500000
0!
0A
0B
