simulation/qsim/Lab6_1_special_multiplier.msim.vcd
$comment
	File created using the following command:
		vcd file Lab6_1_special_multiplier.msim.vcd -direction
$end
$date
	Mon Oct 24 20:26:49 2022
$end
$version
	ModelSim Version 10.5b
$end
$timescale
	1ps
$end

$scope module Lab6_1_special_multiplier_vlg_vec_tst $end
$var reg 4 ! in [3:0] $end
$var wire 1 " out [6] $end
$var wire 1 # out [5] $end
$var wire 1 $ out [4] $end
$var wire 1 % out [3] $end
$var wire 1 & out [2] $end
$var wire 1 ' out [1] $end
$var wire 1 ( out [0] $end

$scope module i1 $end
$var wire 1 ) gnd $end
$var wire 1 * vcc $end
$var wire 1 + unknown $end
$var tri1 1 , devclrn $end
$var tri1 1 - devpor $end
$var tri1 1 . devoe $end
$var wire 1 / ~QUARTUS_CREATED_GND~I_combout $end
$var wire 1 0 in[2]~input_o $end
$var wire 1 1 in[1]~input_o $end
$var wire 1 2 in[0]~input_o $end
$var wire 1 3 in[3]~input_o $end
$var wire 1 4 WideOr5~0_combout $end
$var wire 1 5 WideOr4~0_combout $end
$var wire 1 6 out~0_combout $end
$var wire 1 7 WideOr3~0_combout $end
$var wire 1 8 WideOr2~0_combout $end
$var wire 1 9 WideOr1~0_combout $end
$var wire 1 : WideOr0~0_combout $end
$upscope $end
$upscope $end
$enddefinitions $end
#0
$dumpvars
b0 !
0(
0'
0&
0%
0$
0#
1"
0)
1*
x+
1,
1-
1.
0/
00
01
02
03
04
05
06
07
08
09
0:
$end
#20000
b1 !
12
19
18
17
14
1(
1%
1$
1#
#30000
b11 !
b10 !
02
11
1:
08
07
16
04
0(
1&
0%
0$
0"
#40000
b11 !
12
0:
18
17
06
0&
1%
1$
1"
#50000
b111 !
b101 !
b100 !
02
01
10
1:
09
07
0%
0#
0"
#60000
b101 !
12
08
15
14
1(
1'
0$
#70000
b111 !
b110 !
02
11
#80000
b111 !
12
19
05
0'
1#
#90000
b1111 !
b1011 !
b1001 !
b1000 !
02
01
00
13
09
17
16
15
04
0(
1'
1&
1%
0#
#100000
b1001 !
12
0:
07
06
05
0'
0&
0%
1"
#110000
b1011 !
b1010 !
02
11
#120000
b1011 !
12
#130000
b1111 !
b1101 !
b1100 !
02
01
10
#140000
b1101 !
12
#150000
b1111 !
b1110 !
02
11
#160000
b1111 !
12
#170000
b111 !
b11 !
b1 !
b0 !
02
01
00
03
