Full_Add/simulation/qsim/Full_Add.msim.vcd
$comment
	File created using the following command:
		vcd file Full_Add.msim.vcd -direction
$end
$date
	Tue Oct 11 15:28:42 2022
$end
$version
	ModelSim Version 10.5b
$end
$timescale
	1ps
$end

$scope module Full_Add_vlg_vec_tst $end
$var reg 1 ! a $end
$var reg 1 " b $end
$var reg 1 # c_in $end
$var wire 1 $ c_out $end
$var wire 1 % sum $end

$scope module i1 $end
$var wire 1 & gnd $end
$var wire 1 ' vcc $end
$var wire 1 ( unknown $end
$var tri1 1 ) devclrn $end
$var tri1 1 * devpor $end
$var tri1 1 + devoe $end
$var wire 1 , ~QUARTUS_CREATED_GND~I_combout $end
$var wire 1 - a~input_o $end
$var wire 1 . c_in~input_o $end
$var wire 1 / b~input_o $end
$var wire 1 0 sum~0_combout $end
$var wire 1 1 c_out~0_combout $end
$upscope $end
$upscope $end
$enddefinitions $end
#0
$dumpvars
0!
0"
0#
0$
0%
0&
1'
x(
1)
1*
1+
0,
0-
0.
0/
00
01
$end
#100000
1!
1-
10
1%
#130000
0!
0-
00
0%
#150000
1"
1/
10
1%
#190000
0"
0/
00
0%
#220000
1#
1.
10
1%
#250000
0#
0.
00
0%
#280000
1!
1"
1-
1/
11
1$
#310000
0!
0"
0-
0/
01
0$
#340000
1#
1"
1.
1/
11
1$
#370000
0#
0"
0.
0/
01
0$
#400000
1!
1#
1-
1.
11
1$
#440000
0!
0#
0-
0.
01
0$
#490000
1"
1!
1#
1/
1-
1.
11
10
1%
1$
#550000
0"
0!
0#
0/
0-
0.
01
00
0%
0$
